…
## Usage

The schrute package has one and only one purpose: share the complete
script transcription for The Office (US) television show. Users are
encouraged to use the tidy text data for exploration, learning and fun.

Check out the data like so:

``` r
library(schrute)
library(tibble)

schrute::theoffice
#> # A tibble: 55,130 x 7
#>    index season episode episode_name character text      text_w_direction  
#>    <int> <chr>  <chr>   <chr>        <chr>     <chr>     <chr>             
#>  1     1 01     01      " Pilot"     Michael   " All ri… " All right Jim. …
#>  2   358 01     01      " Pilot"     Jim       " Oh, I … " Oh, I told you.…
#>  3   715 01     01      " Pilot"     Michael   " So you… " So you've come …
#>  4  1072 01     01      " Pilot"     Jim       " Actual… " Actually, you c…
#>  5  1429 01     01      " Pilot"     Michael   " All ri… " All right. Well…
#>  6  1786 01     01      " Pilot"     Michael   " So tha… " [on the phone] …
#>  7  2143 01     01      " Pilot"     Michael   " I've, … " I've, uh, I've …
#>  8  2500 01     01      " Pilot"     Pam       " Well. … " Well. I don't k…
#>  9  2857 01     01      " Pilot"     Michael   " If you… " If you think sh…
#> 10  3214 01     01      " Pilot"     Pam       " What?"  " What?"          
#> # … with 55,120 more rows
```
…
